{
  "name":"Rendez-vous Bloodbowl",
  "organizers":["Ghorghor"],
  "rankings":[
  {
    "name":"Main",
    "competitor_name_field_prefix":"team",
    "competitor_id_field_prefix":"id",
    "criterias":[
      {"name":"Points", "field_prefix":"points","order":{"type":"int","descending":true}},
      {"name":"Star player points", "field_prefix":"spp","order":{"type":"int","descending":true}},
      {"name":"TD", "field_prefix":"td","order":{"type":"int","descending":true}}
    ]
  }],

  "computed_fields":[
    {
      "name":"points_1",
      "type":"condition",
      "clauses":[
        {"condition":{"operator":"equal","fields":["td_1","td_2"]}, "value":"1"},
        {"condition":{"operator":"greater","field_to_be_greater":"td_1","field_to_be_lesser":"td_2"}, "value":"3"}
      ],
      "default_value":"0"
    },
    {
      "name":"points_2",
      "type":"condition",
      "clauses":[
        {"condition":{"operator":"equal","fields":["td_1","td_2"]}, "value":"1"},
        {"condition":{"operator":"greater","field_to_be_greater":"td_2","field_to_be_lesser":"td_1"}, "value":"3"}
      ],
      "default_value":"0"
    },
    {
      "name":"spp_1",
      "type":"direct",
      "value":"$td_1*3+$cas_1*2+$int_1*2+$pass_1"
    },
    {
      "name":"spp_2",
      "type":"direct",
      "value":"$td_2*3+$cas_2*2+$int_2*2+$pass_2"
    }

  ]
}
